Project 3/out.txt
VCD info: dumpfile test.vcd opened for output.
                   0Starting simulation
                   0testSW = 000, testKEY = 00, clock = 0000000000, testLED = 0, testHEX0 = 11000000, testHEX1 = zzzzzzzz, testHEX2 = zzzzzzzz, testHEX3 = zzzzzzzz, testHEX4 = zzzzzzzz, testHEX5 = zzzzzzzz
                  10testSW = 001, testKEY = 00, clock = 0000000000, testLED = 1, testHEX0 = 11000000, testHEX1 = zzzzzzzz, testHEX2 = zzzzzzzz, testHEX3 = zzzzzzzz, testHEX4 = zzzzzzzz, testHEX5 = zzzzzzzz
                  20testSW = 010, testKEY = 00, clock = 0000000000, testLED = 0, testHEX0 = 11000000, testHEX1 = zzzzzzzz, testHEX2 = zzzzzzzz, testHEX3 = zzzzzzzz, testHEX4 = zzzzzzzz, testHEX5 = zzzzzzzz
                  30testSW = 011, testKEY = 00, clock = 0000000000, testLED = 1, testHEX0 = 11000000, testHEX1 = zzzzzzzz, testHEX2 = zzzzzzzz, testHEX3 = zzzzzzzz, testHEX4 = zzzzzzzz, testHEX5 = zzzzzzzz
                  40testSW = 100, testKEY = 01, clock = 1110000111, testLED = 0, testHEX0 = 11000000, testHEX1 = zzzzzzzz, testHEX2 = zzzzzzzz, testHEX3 = zzzzzzzz, testHEX4 = zzzzzzzz, testHEX5 = zzzzzzzz
                  50testSW = 101, testKEY = 01, clock = 1110000111, testLED = 1, testHEX0 = 11000000, testHEX1 = zzzzzzzz, testHEX2 = zzzzzzzz, testHEX3 = zzzzzzzz, testHEX4 = zzzzzzzz, testHEX5 = zzzzzzzz
                  60testSW = 110, testKEY = 01, clock = 1110000000, testLED = 0, testHEX0 = 11000000, testHEX1 = zzzzzzzz, testHEX2 = zzzzzzzz, testHEX3 = zzzzzzzz, testHEX4 = zzzzzzzz, testHEX5 = zzzzzzzz
                  70testSW = 111, testKEY = 01, clock = 1110000111, testLED = 1, testHEX0 = 11000000, testHEX1 = zzzzzzzz, testHEX2 = zzzzzzzz, testHEX3 = zzzzzzzz, testHEX4 = zzzzzzzz, testHEX5 = zzzzzzzz
                  80testSW = 000, testKEY = 01, clock = 0000000000, testLED = 0, testHEX0 = 11000000, testHEX1 = zzzzzzzz, testHEX2 = zzzzzzzz, testHEX3 = zzzzzzzz, testHEX4 = zzzzzzzz, testHEX5 = zzzzzzzz
VCD info: dumpfile test.vcd opened for output.
                   0Starting simulation
                   0testSW = 000, testKEY = 00, clock = 0000000000, testLED = 0, testHEX0 = 11000000, testHEX1 = zzzzzzzz, testHEX2 = zzzzzzzz, testHEX3 = zzzzzzzz, testHEX4 = zzzzzzzz, testHEX5 = zzzzzzzz
                  10testSW = 001, testKEY = 00, clock = 0000000000, testLED = 1, testHEX0 = 11000000, testHEX1 = zzzzzzzz, testHEX2 = zzzzzzzz, testHEX3 = zzzzzzzz, testHEX4 = zzzzzzzz, testHEX5 = zzzzzzzz
                  20testSW = 010, testKEY = 00, clock = 0000000000, testLED = 0, testHEX0 = 11000000, testHEX1 = zzzzzzzz, testHEX2 = zzzzzzzz, testHEX3 = zzzzzzzz, testHEX4 = zzzzzzzz, testHEX5 = zzzzzzzz
                  30testSW = 011, testKEY = 00, clock = 0000000000, testLED = 1, testHEX0 = 11000000, testHEX1 = zzzzzzzz, testHEX2 = zzzzzzzz, testHEX3 = zzzzzzzz, testHEX4 = zzzzzzzz, testHEX5 = zzzzzzzz
                  40testSW = 100, testKEY = 01, clock = 1110000111, testLED = 0, testHEX0 = 11000000, testHEX1 = zzzzzzzz, testHEX2 = zzzzzzzz, testHEX3 = zzzzzzzz, testHEX4 = zzzzzzzz, testHEX5 = zzzzzzzz
                  50testSW = 101, testKEY = 01, clock = 1110000111, testLED = 1, testHEX0 = 11000000, testHEX1 = zzzzzzzz, testHEX2 = zzzzzzzz, testHEX3 = zzzzzzzz, testHEX4 = zzzzzzzz, testHEX5 = zzzzzzzz
                  60testSW = 110, testKEY = 01, clock = 1110000000, testLED = 0, testHEX0 = 11000000, testHEX1 = zzzzzzzz, testHEX2 = zzzzzzzz, testHEX3 = zzzzzzzz, testHEX4 = zzzzzzzz, testHEX5 = zzzzzzzz
                  70testSW = 111, testKEY = 01, clock = 1110000111, testLED = 1, testHEX0 = 11000000, testHEX1 = zzzzzzzz, testHEX2 = zzzzzzzz, testHEX3 = zzzzzzzz, testHEX4 = zzzzzzzz, testHEX5 = zzzzzzzz
                  80testSW = 000, testKEY = 01, clock = 0000000000, testLED = 0, testHEX0 = 11000000, testHEX1 = zzzzzzzz, testHEX2 = zzzzzzzz, testHEX3 = zzzzzzzz, testHEX4 = zzzzzzzz, testHEX5 = zzzzzzzz
VCD info: dumpfile test.vcd opened for output.
                   0Starting simulation
                   0testSW = 000, testKEY = 00, clock = 0000000000, testLED = 0, testHEX0 = 11000000, testHEX1 = zzzzzzzz, testHEX2 = zzzzzzzz, testHEX3 = zzzzzzzz, testHEX4 = zzzzzzzz, testHEX5 = zzzzzzzz
                  10testSW = 000, testKEY = 00, clock = 0000000000, testLED = 1, testHEX0 = 11000000, testHEX1 = zzzzzzzz, testHEX2 = zzzzzzzz, testHEX3 = zzzzzzzz, testHEX4 = zzzzzzzz, testHEX5 = zzzzzzzz
                  20testSW = 000, testKEY = 00, clock = 0000000000, testLED = 0, testHEX0 = 11000000, testHEX1 = zzzzzzzz, testHEX2 = zzzzzzzz, testHEX3 = zzzzzzzz, testHEX4 = zzzzzzzz, testHEX5 = zzzzzzzz
                  30testSW = 000, testKEY = 00, clock = 0000000000, testLED = 1, testHEX0 = 11000000, testHEX1 = zzzzzzzz, testHEX2 = zzzzzzzz, testHEX3 = zzzzzzzz, testHEX4 = zzzzzzzz, testHEX5 = zzzzzzzz
                  40testSW = 000, testKEY = 01, clock = 0000000000, testLED = 0, testHEX0 = 11000000, testHEX1 = zzzzzzzz, testHEX2 = zzzzzzzz, testHEX3 = zzzzzzzz, testHEX4 = zzzzzzzz, testHEX5 = zzzzzzzz
                  50testSW = 000, testKEY = 01, clock = 0000000000, testLED = 1, testHEX0 = 11000000, testHEX1 = zzzzzzzz, testHEX2 = zzzzzzzz, testHEX3 = zzzzzzzz, testHEX4 = zzzzzzzz, testHEX5 = zzzzzzzz
                  60testSW = 000, testKEY = 01, clock = 0000000000, testLED = 0, testHEX0 = 11000000, testHEX1 = zzzzzzzz, testHEX2 = zzzzzzzz, testHEX3 = zzzzzzzz, testHEX4 = zzzzzzzz, testHEX5 = zzzzzzzz
                  70testSW = 000, testKEY = 01, clock = 0000000000, testLED = 1, testHEX0 = 11000000, testHEX1 = zzzzzzzz, testHEX2 = zzzzzzzz, testHEX3 = zzzzzzzz, testHEX4 = zzzzzzzz, testHEX5 = zzzzzzzz
                  80testSW = 000, testKEY = 01, clock = 0000000000, testLED = 0, testHEX0 = 11000000, testHEX1 = zzzzzzzz, testHEX2 = zzzzzzzz, testHEX3 = zzzzzzzz, testHEX4 = zzzzzzzz, testHEX5 = zzzzzzzz
VCD info: dumpfile test.vcd opened for output.
                   0Starting simulation
                   0testSW = 000, testKEY = 00, clock = 0000000000, testLED = 0, testHEX0 = 11000000, testHEX1 = zzzzzzzz, testHEX2 = zzzzzzzz, testHEX3 = zzzzzzzz, testHEX4 = zzzzzzzz, testHEX5 = zzzzzzzz
                  10testSW = 000, testKEY = 00, clock = 0000000000, testLED = 1, testHEX0 = 11000000, testHEX1 = zzzzzzzz, testHEX2 = zzzzzzzz, testHEX3 = zzzzzzzz, testHEX4 = zzzzzzzz, testHEX5 = zzzzzzzz
                  20testSW = 000, testKEY = 00, clock = 0000000000, testLED = 0, testHEX0 = 11000000, testHEX1 = zzzzzzzz, testHEX2 = zzzzzzzz, testHEX3 = zzzzzzzz, testHEX4 = zzzzzzzz, testHEX5 = zzzzzzzz
                  30testSW = 000, testKEY = 00, clock = 0000000000, testLED = 1, testHEX0 = 11000000, testHEX1 = zzzzzzzz, testHEX2 = zzzzzzzz, testHEX3 = zzzzzzzz, testHEX4 = zzzzzzzz, testHEX5 = zzzzzzzz
                  40testSW = 000, testKEY = 01, clock = 0000000000, testLED = 0, testHEX0 = 11000000, testHEX1 = zzzzzzzz, testHEX2 = zzzzzzzz, testHEX3 = zzzzzzzz, testHEX4 = zzzzzzzz, testHEX5 = zzzzzzzz
                  50testSW = 000, testKEY = 01, clock = 0000000000, testLED = 1, testHEX0 = 11000000, testHEX1 = zzzzzzzz, testHEX2 = zzzzzzzz, testHEX3 = zzzzzzzz, testHEX4 = zzzzzzzz, testHEX5 = zzzzzzzz
                  60testSW = 000, testKEY = 01, clock = 0000000000, testLED = 0, testHEX0 = 11000000, testHEX1 = zzzzzzzz, testHEX2 = zzzzzzzz, testHEX3 = zzzzzzzz, testHEX4 = zzzzzzzz, testHEX5 = zzzzzzzz
                  70testSW = 000, testKEY = 01, clock = 0000000000, testLED = 1, testHEX0 = 11000000, testHEX1 = zzzzzzzz, testHEX2 = zzzzzzzz, testHEX3 = zzzzzzzz, testHEX4 = zzzzzzzz, testHEX5 = zzzzzzzz
                  80testSW = 000, testKEY = 01, clock = 0000000000, testLED = 0, testHEX0 = 11000000, testHEX1 = zzzzzzzz, testHEX2 = zzzzzzzz, testHEX3 = zzzzzzzz, testHEX4 = zzzzzzzz, testHEX5 = zzzzzzzz
                  90testSW = 000, testKEY = 01, clock = 0000000000, testLED = 1, testHEX0 = 11000000, testHEX1 = zzzzzzzz, testHEX2 = zzzzzzzz, testHEX3 = zzzzzzzz, testHEX4 = zzzzzzzz, testHEX5 = zzzzzzzz
                 100testSW = 000, testKEY = 01, clock = 0000000000, testLED = 0, testHEX0 = 11000000, testHEX1 = zzzzzzzz, testHEX2 = zzzzzzzz, testHEX3 = zzzzzzzz, testHEX4 = zzzzzzzz, testHEX5 = zzzzzzzz
                 110testSW = 000, testKEY = 01, clock = 0000000000, testLED = 1, testHEX0 = 11000000, testHEX1 = zzzzzzzz, testHEX2 = zzzzzzzz, testHEX3 = zzzzzzzz, testHEX4 = zzzzzzzz, testHEX5 = zzzzzzzz
                 120testSW = 000, testKEY = 01, clock = 0000000000, testLED = 0, testHEX0 = 11000000, testHEX1 = zzzzzzzz, testHEX2 = zzzzzzzz, testHEX3 = zzzzzzzz, testHEX4 = zzzzzzzz, testHEX5 = zzzzzzzz
                 130testSW = 000, testKEY = 01, clock = 0000000000, testLED = 1, testHEX0 = 11000000, testHEX1 = zzzzzzzz, testHEX2 = zzzzzzzz, testHEX3 = zzzzzzzz, testHEX4 = zzzzzzzz, testHEX5 = zzzzzzzz
                 140testSW = 000, testKEY = 01, clock = 0000000000, testLED = 0, testHEX0 = 11000000, testHEX1 = zzzzzzzz, testHEX2 = zzzzzzzz, testHEX3 = zzzzzzzz, testHEX4 = zzzzzzzz, testHEX5 = zzzzzzzz
                 150testSW = 000, testKEY = 01, clock = 0000000000, testLED = 1, testHEX0 = 11000000, testHEX1 = zzzzzzzz, testHEX2 = zzzzzzzz, testHEX3 = zzzzzzzz, testHEX4 = zzzzzzzz, testHEX5 = zzzzzzzz
                 160testSW = 000, testKEY = 01, clock = 0000000000, testLED = 0, testHEX0 = 11000000, testHEX1 = zzzzzzzz, testHEX2 = zzzzzzzz, testHEX3 = zzzzzzzz, testHEX4 = zzzzzzzz, testHEX5 = zzzzzzzz
VCD info: dumpfile test.vcd opened for output.
                   0Starting simulation
                   0testSW = 000, testKEY = 00, clock = 0000000000, testLED = 0, testHEX0 = 11000000, testHEX1 = zzzzzzzz, testHEX2 = zzzzzzzz, testHEX3 = zzzzzzzz, testHEX4 = zzzzzzzz, testHEX5 = zzzzzzzz
                  10testSW = 000, testKEY = 00, clock = 0000000000, testLED = 1, testHEX0 = 11000000, testHEX1 = zzzzzzzz, testHEX2 = zzzzzzzz, testHEX3 = zzzzzzzz, testHEX4 = zzzzzzzz, testHEX5 = zzzzzzzz
                  20testSW = 000, testKEY = 00, clock = 0000000000, testLED = 0, testHEX0 = 11000000, testHEX1 = zzzzzzzz, testHEX2 = zzzzzzzz, testHEX3 = zzzzzzzz, testHEX4 = zzzzzzzz, testHEX5 = zzzzzzzz
                  30testSW = 000, testKEY = 00, clock = 0000000000, testLED = 1, testHEX0 = 11000000, testHEX1 = zzzzzzzz, testHEX2 = zzzzzzzz, testHEX3 = zzzzzzzz, testHEX4 = zzzzzzzz, testHEX5 = zzzzzzzz
                  40testSW = 000, testKEY = 01, clock = 0000000000, testLED = 0, testHEX0 = 11000000, testHEX1 = zzzzzzzz, testHEX2 = zzzzzzzz, testHEX3 = zzzzzzzz, testHEX4 = zzzzzzzz, testHEX5 = zzzzzzzz
                  50testSW = 000, testKEY = 01, clock = 0000000000, testLED = 1, testHEX0 = 11000000, testHEX1 = zzzzzzzz, testHEX2 = zzzzzzzz, testHEX3 = zzzzzzzz, testHEX4 = zzzzzzzz, testHEX5 = zzzzzzzz
                  60testSW = 000, testKEY = 01, clock = 0000000000, testLED = 0, testHEX0 = 11000000, testHEX1 = zzzzzzzz, testHEX2 = zzzzzzzz, testHEX3 = zzzzzzzz, testHEX4 = zzzzzzzz, testHEX5 = zzzzzzzz
                  70testSW = 000, testKEY = 01, clock = 0000000000, testLED = 1, testHEX0 = 11000000, testHEX1 = zzzzzzzz, testHEX2 = zzzzzzzz, testHEX3 = zzzzzzzz, testHEX4 = zzzzzzzz, testHEX5 = zzzzzzzz
                  80testSW = 000, testKEY = 01, clock = 0000000000, testLED = 0, testHEX0 = 11000000, testHEX1 = zzzzzzzz, testHEX2 = zzzzzzzz, testHEX3 = zzzzzzzz, testHEX4 = zzzzzzzz, testHEX5 = zzzzzzzz
                  90testSW = 000, testKEY = 01, clock = 0000000000, testLED = 1, testHEX0 = 11000000, testHEX1 = zzzzzzzz, testHEX2 = zzzzzzzz, testHEX3 = zzzzzzzz, testHEX4 = zzzzzzzz, testHEX5 = zzzzzzzz
                 100testSW = 000, testKEY = 01, clock = 0000000000, testLED = 0, testHEX0 = 11000000, testHEX1 = zzzzzzzz, testHEX2 = zzzzzzzz, testHEX3 = zzzzzzzz, testHEX4 = zzzzzzzz, testHEX5 = zzzzzzzz
                 110testSW = 000, testKEY = 01, clock = 0000000000, testLED = 1, testHEX0 = 11000000, testHEX1 = zzzzzzzz, testHEX2 = zzzzzzzz, testHEX3 = zzzzzzzz, testHEX4 = zzzzzzzz, testHEX5 = zzzzzzzz
                 120testSW = 000, testKEY = 01, clock = 0000000000, testLED = 0, testHEX0 = 11000000, testHEX1 = zzzzzzzz, testHEX2 = zzzzzzzz, testHEX3 = zzzzzzzz, testHEX4 = zzzzzzzz, testHEX5 = zzzzzzzz
                 130testSW = 000, testKEY = 01, clock = 0000000000, testLED = 1, testHEX0 = 11000000, testHEX1 = zzzzzzzz, testHEX2 = zzzzzzzz, testHEX3 = zzzzzzzz, testHEX4 = zzzzzzzz, testHEX5 = zzzzzzzz
                 140testSW = 000, testKEY = 01, clock = 0000000000, testLED = 0, testHEX0 = 11000000, testHEX1 = zzzzzzzz, testHEX2 = zzzzzzzz, testHEX3 = zzzzzzzz, testHEX4 = zzzzzzzz, testHEX5 = zzzzzzzz
                 150testSW = 000, testKEY = 01, clock = 0000000000, testLED = 1, testHEX0 = 11000000, testHEX1 = zzzzzzzz, testHEX2 = zzzzzzzz, testHEX3 = zzzzzzzz, testHEX4 = zzzzzzzz, testHEX5 = zzzzzzzz
                 160testSW = 000, testKEY = 01, clock = 0000000000, testLED = 0, testHEX0 = 11000000, testHEX1 = zzzzzzzz, testHEX2 = zzzzzzzz, testHEX3 = zzzzzzzz, testHEX4 = zzzzzzzz, testHEX5 = zzzzzzzz
VCD info: dumpfile test.vcd opened for output.
                   0Starting simulation
                   0testSW = 000, testKEY = 00, clock = 0000000000, testLED = 0, testHEX0 = 11000000, testHEX1 = zzzzzzzz, testHEX2 = zzzzzzzz, testHEX3 = zzzzzzzz, testHEX4 = zzzzzzzz, testHEX5 = zzzzzzzz
                  10testSW = 000, testKEY = 00, clock = 0000000000, testLED = 1, testHEX0 = 11000000, testHEX1 = zzzzzzzz, testHEX2 = zzzzzzzz, testHEX3 = zzzzzzzz, testHEX4 = zzzzzzzz, testHEX5 = zzzzzzzz
                  20testSW = 000, testKEY = 00, clock = 0000000000, testLED = 0, testHEX0 = 11000000, testHEX1 = zzzzzzzz, testHEX2 = zzzzzzzz, testHEX3 = zzzzzzzz, testHEX4 = zzzzzzzz, testHEX5 = zzzzzzzz
                  30testSW = 000, testKEY = 00, clock = 0000000000, testLED = 1, testHEX0 = 11000000, testHEX1 = zzzzzzzz, testHEX2 = zzzzzzzz, testHEX3 = zzzzzzzz, testHEX4 = zzzzzzzz, testHEX5 = zzzzzzzz
                  40testSW = 000, testKEY = 01, clock = 0000000000, testLED = 0, testHEX0 = 11000000, testHEX1 = zzzzzzzz, testHEX2 = zzzzzzzz, testHEX3 = zzzzzzzz, testHEX4 = zzzzzzzz, testHEX5 = zzzzzzzz
                  50testSW = 000, testKEY = 01, clock = 0000000000, testLED = 1, testHEX0 = 11000000, testHEX1 = zzzzzzzz, testHEX2 = zzzzzzzz, testHEX3 = zzzzzzzz, testHEX4 = zzzzzzzz, testHEX5 = zzzzzzzz
                  60testSW = 000, testKEY = 01, clock = 0000000000, testLED = 0, testHEX0 = 11000000, testHEX1 = zzzzzzzz, testHEX2 = zzzzzzzz, testHEX3 = zzzzzzzz, testHEX4 = zzzzzzzz, testHEX5 = zzzzzzzz
                  70testSW = 000, testKEY = 01, clock = 0000000000, testLED = 1, testHEX0 = 11000000, testHEX1 = zzzzzzzz, testHEX2 = zzzzzzzz, testHEX3 = zzzzzzzz, testHEX4 = zzzzzzzz, testHEX5 = zzzzzzzz
                  80testSW = 000, testKEY = 01, clock = 0000000000, testLED = 0, testHEX0 = 11000000, testHEX1 = zzzzzzzz, testHEX2 = zzzzzzzz, testHEX3 = zzzzzzzz, testHEX4 = zzzzzzzz, testHEX5 = zzzzzzzz
                  90testSW = 000, testKEY = 01, clock = 0000000000, testLED = 1, testHEX0 = 11000000, testHEX1 = zzzzzzzz, testHEX2 = zzzzzzzz, testHEX3 = zzzzzzzz, testHEX4 = zzzzzzzz, testHEX5 = zzzzzzzz
                 100testSW = 000, testKEY = 01, clock = 0000000000, testLED = 0, testHEX0 = 11000000, testHEX1 = zzzzzzzz, testHEX2 = zzzzzzzz, testHEX3 = zzzzzzzz, testHEX4 = zzzzzzzz, testHEX5 = zzzzzzzz
                 110testSW = 000, testKEY = 01, clock = 0000000000, testLED = 1, testHEX0 = 11000000, testHEX1 = zzzzzzzz, testHEX2 = zzzzzzzz, testHEX3 = zzzzzzzz, testHEX4 = zzzzzzzz, testHEX5 = zzzzzzzz
                 120testSW = 000, testKEY = 01, clock = 0000000000, testLED = 0, testHEX0 = 11000000, testHEX1 = zzzzzzzz, testHEX2 = zzzzzzzz, testHEX3 = zzzzzzzz, testHEX4 = zzzzzzzz, testHEX5 = zzzzzzzz
                 130testSW = 000, testKEY = 01, clock = 0000000000, testLED = 1, testHEX0 = 11000000, testHEX1 = zzzzzzzz, testHEX2 = zzzzzzzz, testHEX3 = zzzzzzzz, testHEX4 = zzzzzzzz, testHEX5 = zzzzzzzz
                 140testSW = 000, testKEY = 01, clock = 0000000000, testLED = 0, testHEX0 = 11000000, testHEX1 = zzzzzzzz, testHEX2 = zzzzzzzz, testHEX3 = zzzzzzzz, testHEX4 = zzzzzzzz, testHEX5 = zzzzzzzz
                 150testSW = 000, testKEY = 01, clock = 0000000000, testLED = 1, testHEX0 = 11000000, testHEX1 = zzzzzzzz, testHEX2 = zzzzzzzz, testHEX3 = zzzzzzzz, testHEX4 = zzzzzzzz, testHEX5 = zzzzzzzz
                 160testSW = 000, testKEY = 01, clock = 0000000000, testLED = 0, testHEX0 = 11000000, testHEX1 = zzzzzzzz, testHEX2 = zzzzzzzz, testHEX3 = zzzzzzzz, testHEX4 = zzzzzzzz, testHEX5 = zzzzzzzz
VCD info: dumpfile test.vcd opened for output.
                   0Starting simulation
                   0testSW = 000, testKEY = 00, clock = 0000000000, testLED = 0, testHEX0 = 11000000, testHEX1 = zzzzzzzz, testHEX2 = zzzzzzzz, testHEX3 = zzzzzzzz, testHEX4 = zzzzzzzz, testHEX5 = zzzzzzzz
                  10testSW = 000, testKEY = 00, clock = 0000000000, testLED = 1, testHEX0 = 11000000, testHEX1 = zzzzzzzz, testHEX2 = zzzzzzzz, testHEX3 = zzzzzzzz, testHEX4 = zzzzzzzz, testHEX5 = zzzzzzzz
                  20testSW = 000, testKEY = 00, clock = 0000000000, testLED = 0, testHEX0 = 11000000, testHEX1 = zzzzzzzz, testHEX2 = zzzzzzzz, testHEX3 = zzzzzzzz, testHEX4 = zzzzzzzz, testHEX5 = zzzzzzzz
                  30testSW = 000, testKEY = 00, clock = 0000000000, testLED = 1, testHEX0 = 11000000, testHEX1 = zzzzzzzz, testHEX2 = zzzzzzzz, testHEX3 = zzzzzzzz, testHEX4 = zzzzzzzz, testHEX5 = zzzzzzzz
                  40testSW = 001, testKEY = 01, clock = 0000000000, testLED = 0, testHEX0 = 11000000, testHEX1 = zzzzzzzz, testHEX2 = zzzzzzzz, testHEX3 = zzzzzzzz, testHEX4 = zzzzzzzz, testHEX5 = zzzzzzzz
                  50testSW = 001, testKEY = 01, clock = 0000000000, testLED = 1, testHEX0 = 11000000, testHEX1 = zzzzzzzz, testHEX2 = zzzzzzzz, testHEX3 = zzzzzzzz, testHEX4 = zzzzzzzz, testHEX5 = zzzzzzzz
                  60testSW = 001, testKEY = 01, clock = 0000000000, testLED = 0, testHEX0 = 11000000, testHEX1 = zzzzzzzz, testHEX2 = zzzzzzzz, testHEX3 = zzzzzzzz, testHEX4 = zzzzzzzz, testHEX5 = zzzzzzzz
                  70testSW = 001, testKEY = 01, clock = 0000000000, testLED = 1, testHEX0 = 11000000, testHEX1 = zzzzzzzz, testHEX2 = zzzzzzzz, testHEX3 = zzzzzzzz, testHEX4 = zzzzzzzz, testHEX5 = zzzzzzzz
                  80testSW = 001, testKEY = 01, clock = 0000000000, testLED = 0, testHEX0 = 11000000, testHEX1 = zzzzzzzz, testHEX2 = zzzzzzzz, testHEX3 = zzzzzzzz, testHEX4 = zzzzzzzz, testHEX5 = zzzzzzzz
                  90testSW = 001, testKEY = 01, clock = 0000000000, testLED = 1, testHEX0 = 11000000, testHEX1 = zzzzzzzz, testHEX2 = zzzzzzzz, testHEX3 = zzzzzzzz, testHEX4 = zzzzzzzz, testHEX5 = zzzzzzzz
                 100testSW = 001, testKEY = 01, clock = 0000000000, testLED = 0, testHEX0 = 11000000, testHEX1 = zzzzzzzz, testHEX2 = zzzzzzzz, testHEX3 = zzzzzzzz, testHEX4 = zzzzzzzz, testHEX5 = zzzzzzzz
                 110testSW = 001, testKEY = 01, clock = 0000000000, testLED = 1, testHEX0 = 11000000, testHEX1 = zzzzzzzz, testHEX2 = zzzzzzzz, testHEX3 = zzzzzzzz, testHEX4 = zzzzzzzz, testHEX5 = zzzzzzzz
                 120testSW = 001, testKEY = 01, clock = 0000000000, testLED = 0, testHEX0 = 11000000, testHEX1 = zzzzzzzz, testHEX2 = zzzzzzzz, testHEX3 = zzzzzzzz, testHEX4 = zzzzzzzz, testHEX5 = zzzzzzzz
                 130testSW = 001, testKEY = 01, clock = 0000000000, testLED = 1, testHEX0 = 11000000, testHEX1 = zzzzzzzz, testHEX2 = zzzzzzzz, testHEX3 = zzzzzzzz, testHEX4 = zzzzzzzz, testHEX5 = zzzzzzzz
                 140testSW = 001, testKEY = 01, clock = 0000000000, testLED = 0, testHEX0 = 11000000, testHEX1 = zzzzzzzz, testHEX2 = zzzzzzzz, testHEX3 = zzzzzzzz, testHEX4 = zzzzzzzz, testHEX5 = zzzzzzzz
                 150testSW = 001, testKEY = 01, clock = 0000000000, testLED = 1, testHEX0 = 11000000, testHEX1 = zzzzzzzz, testHEX2 = zzzzzzzz, testHEX3 = zzzzzzzz, testHEX4 = zzzzzzzz, testHEX5 = zzzzzzzz
                 160testSW = 001, testKEY = 01, clock = 0000000000, testLED = 0, testHEX0 = 11000000, testHEX1 = zzzzzzzz, testHEX2 = zzzzzzzz, testHEX3 = zzzzzzzz, testHEX4 = zzzzzzzz, testHEX5 = zzzzzzzz
VCD info: dumpfile test.vcd opened for output.
                   0Starting simulation
                   0testSW = 00000000, testKEY = 00, clock = 0000000000, testLED = 0, testHEX0 = 11000000, testHEX1 = zzzzzzzz, testHEX2 = zzzzzzzz, testHEX3 = zzzzzzzz, testHEX4 = zzzzzzzz, testHEX5 = zzzzzzzz
                  10testSW = 00000000, testKEY = 00, clock = 0000000000, testLED = 1, testHEX0 = 11000000, testHEX1 = zzzzzzzz, testHEX2 = zzzzzzzz, testHEX3 = zzzzzzzz, testHEX4 = zzzzzzzz, testHEX5 = zzzzzzzz
                  20testSW = 00000000, testKEY = 00, clock = 0000000000, testLED = 0, testHEX0 = 11000000, testHEX1 = zzzzzzzz, testHEX2 = zzzzzzzz, testHEX3 = zzzzzzzz, testHEX4 = zzzzzzzz, testHEX5 = zzzzzzzz
                  30testSW = 00000000, testKEY = 00, clock = 0000000000, testLED = 1, testHEX0 = 11000000, testHEX1 = zzzzzzzz, testHEX2 = zzzzzzzz, testHEX3 = zzzzzzzz, testHEX4 = zzzzzzzz, testHEX5 = zzzzzzzz
                  40testSW = 00000001, testKEY = 01, clock = 0000000000, testLED = 0, testHEX0 = 11000000, testHEX1 = zzzzzzzz, testHEX2 = zzzzzzzz, testHEX3 = zzzzzzzz, testHEX4 = zzzzzzzz, testHEX5 = zzzzzzzz
                  50testSW = 00000001, testKEY = 01, clock = 0000000000, testLED = 1, testHEX0 = 11000000, testHEX1 = zzzzzzzz, testHEX2 = zzzzzzzz, testHEX3 = zzzzzzzz, testHEX4 = zzzzzzzz, testHEX5 = zzzzzzzz
                  60testSW = 00000001, testKEY = 01, clock = 0000000000, testLED = 0, testHEX0 = 11000000, testHEX1 = zzzzzzzz, testHEX2 = zzzzzzzz, testHEX3 = zzzzzzzz, testHEX4 = zzzzzzzz, testHEX5 = zzzzzzzz
                  70testSW = 00000001, testKEY = 01, clock = 0000000000, testLED = 1, testHEX0 = 11000000, testHEX1 = zzzzzzzz, testHEX2 = zzzzzzzz, testHEX3 = zzzzzzzz, testHEX4 = zzzzzzzz, testHEX5 = zzzzzzzz
                  80testSW = 00000001, testKEY = 01, clock = 0000000000, testLED = 0, testHEX0 = 11000000, testHEX1 = zzzzzzzz, testHEX2 = zzzzzzzz, testHEX3 = zzzzzzzz, testHEX4 = zzzzzzzz, testHEX5 = zzzzzzzz
                  90testSW = 00000001, testKEY = 01, clock = 0000000000, testLED = 1, testHEX0 = 11000000, testHEX1 = zzzzzzzz, testHEX2 = zzzzzzzz, testHEX3 = zzzzzzzz, testHEX4 = zzzzzzzz, testHEX5 = zzzzzzzz
                 100testSW = 00000001, testKEY = 01, clock = 0000000000, testLED = 0, testHEX0 = 11000000, testHEX1 = zzzzzzzz, testHEX2 = zzzzzzzz, testHEX3 = zzzzzzzz, testHEX4 = zzzzzzzz, testHEX5 = zzzzzzzz
                 110testSW = 00000001, testKEY = 01, clock = 0000000000, testLED = 1, testHEX0 = 11000000, testHEX1 = zzzzzzzz, testHEX2 = zzzzzzzz, testHEX3 = zzzzzzzz, testHEX4 = zzzzzzzz, testHEX5 = zzzzzzzz
                 120testSW = 00000001, testKEY = 01, clock = 0000000000, testLED = 0, testHEX0 = 11000000, testHEX1 = zzzzzzzz, testHEX2 = zzzzzzzz, testHEX3 = zzzzzzzz, testHEX4 = zzzzzzzz, testHEX5 = zzzzzzzz
                 130testSW = 00000001, testKEY = 01, clock = 0000000000, testLED = 1, testHEX0 = 11000000, testHEX1 = zzzzzzzz, testHEX2 = zzzzzzzz, testHEX3 = zzzzzzzz, testHEX4 = zzzzzzzz, testHEX5 = zzzzzzzz
                 140testSW = 00000001, testKEY = 01, clock = 0000000000, testLED = 0, testHEX0 = 11000000, testHEX1 = zzzzzzzz, testHEX2 = zzzzzzzz, testHEX3 = zzzzzzzz, testHEX4 = zzzzzzzz, testHEX5 = zzzzzzzz
                 150testSW = 00000001, testKEY = 01, clock = 0000000000, testLED = 1, testHEX0 = 11000000, testHEX1 = zzzzzzzz, testHEX2 = zzzzzzzz, testHEX3 = zzzzzzzz, testHEX4 = zzzzzzzz, testHEX5 = zzzzzzzz
                 160testSW = 00000001, testKEY = 01, clock = 0000000000, testLED = 0, testHEX0 = 11000000, testHEX1 = zzzzzzzz, testHEX2 = zzzzzzzz, testHEX3 = zzzzzzzz, testHEX4 = zzzzzzzz, testHEX5 = zzzzzzzz
VCD info: dumpfile test.vcd opened for output.
                   0Starting simulation
                   0testSW = 00000000, testKEY = 00, clock = 0000000000, testLED = 0, testHEX0 = 11000000, testHEX1 = zzzzzzzz, testHEX2 = zzzzzzzz, testHEX3 = zzzzzzzz, testHEX4 = zzzzzzzz, testHEX5 = zzzzzzzz
                  10testSW = 00000000, testKEY = 00, clock = 0000000000, testLED = 1, testHEX0 = 11000000, testHEX1 = zzzzzzzz, testHEX2 = zzzzzzzz, testHEX3 = zzzzzzzz, testHEX4 = zzzzzzzz, testHEX5 = zzzzzzzz
                  20testSW = 00000000, testKEY = 00, clock = 0000000000, testLED = 0, testHEX0 = 11000000, testHEX1 = zzzzzzzz, testHEX2 = zzzzzzzz, testHEX3 = zzzzzzzz, testHEX4 = zzzzzzzz, testHEX5 = zzzzzzzz
                  30testSW = 00000000, testKEY = 00, clock = 0000000000, testLED = 1, testHEX0 = 11000000, testHEX1 = zzzzzzzz, testHEX2 = zzzzzzzz, testHEX3 = zzzzzzzz, testHEX4 = zzzzzzzz, testHEX5 = zzzzzzzz
